{
    "FX:EUR:USD":"G10-FX",
    "FX:GBP:USD":"G10-FX",
    "FX:USD:BRL":"EM-FX",
    "FX:USD:CLP":"EM-FX",
    "FX:USD:CNH":"EM-FX",
    "FX:USD:ILS":"EM-FX",
    "FX:USD:JPY":"G10-FX",
    "FX:USD:MXN":"EM-FX",
    "FX:USD:ZAR":"EM-FX", 
    "iShares 20+ Year Treasury Bond ETF":"US RATE",
    "TLT":"US-EQUITY",
    "SPXW 4":"US-EQUITY",
    "SPX":"US-EQUITY",
    "EURO STOXX 50 Option":"EUR-EQUITY",
    "VG1":"EUR-EQUITY",
    "iShares 20+ Year Treasury Bond ETF":"US RATE",
    "BRL":"EM RATE",
    "Treasury":"US RATE",
    "USGG5YR":"US RATE", 
    "Brent Crude Option":"OIL",
    "Gold Option (GC)":"GOLD"
}